+-------------------------------+--------------------------------------------------------+------------------------------+--------+
| Mod name                      | Registry name                                          | Entity class name            |     ID |
+-------------------------------+--------------------------------------------------------+------------------------------+--------+
| AbyssalCraft                  | abyssalcraft:abygolem                                  | EntityAbygolem               |     30 |
| AbyssalCraft                  | abyssalcraft:abyssalzombie                             | EntityAbyssalZombie          |     27 |
| AbyssalCraft                  | abyssalcraft:antiabyssalzombie                         | EntityAntiAbyssalZombie      |     48 |
| AbyssalCraft                  | abyssalcraft:antibat                                   | EntityAntiBat                |     49 |
| AbyssalCraft                  | abyssalcraft:antichicken                               | EntityAntiChicken            |     50 |
| AbyssalCraft                  | abyssalcraft:anticow                                   | EntityAntiCow                |     51 |
| AbyssalCraft                  | abyssalcraft:anticreeper                               | EntityAntiCreeper            |     52 |
| AbyssalCraft                  | abyssalcraft:antighoul                                 | EntityAntiGhoul              |     53 |
| AbyssalCraft                  | abyssalcraft:antipig                                   | EntityAntiPig                |     54 |
| AbyssalCraft                  | abyssalcraft:antiplayer                                | EntityAntiPlayer             |     55 |
| AbyssalCraft                  | abyssalcraft:antiskeleton                              | EntityAntiSkeleton           |     56 |
| AbyssalCraft                  | abyssalcraft:antispider                                | EntityAntiSpider             |     57 |
| AbyssalCraft                  | abyssalcraft:antizombie                                | EntityAntiZombie             |     58 |
| AbyssalCraft                  | abyssalcraft:chagaroth                                 | EntityChagaroth              |     45 |
| AbyssalCraft                  | abyssalcraft:chagarothfist                             | EntityChagarothFist          |     44 |
| AbyssalCraft                  | abyssalcraft:chagarothspawn                            | EntityChagarothSpawn         |     43 |
| AbyssalCraft                  | abyssalcraft:coraliumarrow                             | EntityCoraliumArrow          |     61 |
| AbyssalCraft                  | abyssalcraft:coraliumsquid                             | EntityCoraliumSquid          |     74 |
| AbyssalCraft                  | abyssalcraft:demonchicken                              | EntityDemonChicken           |     70 |
| AbyssalCraft                  | abyssalcraft:demoncow                                  | EntityDemonCow               |     69 |
| AbyssalCraft                  | abyssalcraft:demonpig                                  | EntityDemonPig               |     41 |
| AbyssalCraft                  | abyssalcraft:demonsheep                                | EntityDemonSheep             |     73 |
| AbyssalCraft                  | abyssalcraft:depthsghoul                               | EntityDepthsGhoul            |     25 |
| AbyssalCraft                  | abyssalcraft:dragonboss                                | EntityDragonBoss             |     35 |
| AbyssalCraft                  | abyssalcraft:dragonminion                              | EntityDragonMinion           |     34 |
| AbyssalCraft                  | abyssalcraft:dreadedcharge                             | EntityDreadedCharge          |     76 |
| AbyssalCraft                  | abyssalcraft:dreadgolem                                | EntityDreadgolem             |     31 |
| AbyssalCraft                  | abyssalcraft:dreadguard                                | EntityDreadguard             |     32 |
| AbyssalCraft                  | abyssalcraft:dreadling                                 | EntityDreadling              |     39 |
| AbyssalCraft                  | abyssalcraft:dreadslug                                 | EntityDreadSlug              |     65 |
| AbyssalCraft                  | abyssalcraft:dreadspawn                                | EntityDreadSpawn             |     40 |
| AbyssalCraft                  | abyssalcraft:evilchicken                               | EntityEvilChicken            |     68 |
| AbyssalCraft                  | abyssalcraft:evilcow                                   | EntityEvilCow                |     67 |
| AbyssalCraft                  | abyssalcraft:evilpig                                   | EntityEvilpig                |     26 |
| AbyssalCraft                  | abyssalcraft:evilsheep                                 | EntityEvilSheep              |     72 |
| AbyssalCraft                  | abyssalcraft:gatekeeperessence                         | EntityGatekeeperEssence      |     71 |
| AbyssalCraft                  | abyssalcraft:greaterdreadspawn                         | EntityGreaterDreadSpawn      |     63 |
| AbyssalCraft                  | abyssalcraft:gskeleton                                 | EntitySkeletonGoliath        |     42 |
| AbyssalCraft                  | abyssalcraft:inkprojectile                             | EntityInkProjectile          |     75 |
| AbyssalCraft                  | abyssalcraft:jzahar                                    | EntityJzahar                 |     29 |
| AbyssalCraft                  | abyssalcraft:jzaharminion                              | EntityGatekeeperMinion       |     62 |
| AbyssalCraft                  | abyssalcraft:lesserdreadbeast                          | EntityLesserDreadbeast       |     64 |
| AbyssalCraft                  | abyssalcraft:lessershoggoth                            | EntityLesserShoggoth         |     66 |
| AbyssalCraft                  | abyssalcraft:omotholghoul                              | EntityOmotholGhoul           |     60 |
| AbyssalCraft                  | abyssalcraft:powerstonetracker                         | EntityPSDLTracker            |     33 |
| AbyssalCraft                  | abyssalcraft:primedodb                                 | EntityODBPrimed              |     28 |
| AbyssalCraft                  | abyssalcraft:primedodbcore                             | EntityODBcPrimed             |     36 |
| AbyssalCraft                  | abyssalcraft:remnant                                   | EntityRemnant                |     59 |
| AbyssalCraft                  | abyssalcraft:shadowbeast                               | EntityShadowBeast            |     46 |
| AbyssalCraft                  | abyssalcraft:shadowboss                                | EntitySacthoth               |     47 |
| AbyssalCraft                  | abyssalcraft:shadowcreature                            | EntityShadowCreature         |     37 |
| AbyssalCraft                  | abyssalcraft:shadowmonster                             | EntityShadowMonster          |     38 |
| Actually Additions            | actuallyadditions:worm                                 | EntityWorm                   |      0 |
| Advanced Hook Launchers       | adhooks:hookshot                                       | HookShot                     |      1 |
| Angel of Vengeance            | aov:entitycelestialopposition                          | EntityCelestialOpposition    |      9 |
| Angel of Vengeance            | aov:entitycombust                                      | EntityCombust                |      7 |
| Angel of Vengeance            | aov:entitygravity                                      | EntityGravity                |      8 |
| Angel of Vengeance            | aov:entitymalefic                                      | EntityMalefic                |      6 |
| Angel of Vengeance            | aov:entityspellaovparticles                            | EntitySpellAoVParticles      |      5 |
| Angel of Vengeance            | aov:entityspellbladebarrier                            | EntitySpellBladeBarrier      |      3 |
| Angel of Vengeance            | aov:entityspellimplosion                               | EntitySpellImplosion         |      2 |
| Angel of Vengeance            | aov:entityspellvanillaparticles                        | EntitySpellVanillaParticles  |      4 |
| Angel of Vengeance            | aov:projectileflamestrike                              | ProjectileFlameStrike        |      1 |
| Angel of Vengeance            | aov:projectilenimbusray                                | ProjectileNimbusRay          |      0 |
| Animania                      | animania:buck_alpine                                   | EntityBuckAlpine             |     69 |
| Animania                      | animania:buck_angora                                   | EntityBuckAngora             |     72 |
| Animania                      | animania:buck_chinchilla                               | EntityRabbitBuckChinchilla   |    110 |
| Animania                      | animania:buck_cottontail                               | EntityRabbitBuckCottontail   |    107 |
| Animania                      | animania:buck_dutch                                    | EntityRabbitBuckDutch        |    113 |
| Animania                      | animania:buck_fainting                                 | EntityBuckFainting           |     75 |
| Animania                      | animania:buck_havana                                   | EntityRabbitBuckHavana       |    116 |
| Animania                      | animania:buck_jack                                     | EntityRabbitBuckJack         |    119 |
| Animania                      | animania:buck_kiko                                     | EntityBuckKiko               |     78 |
| Animania                      | animania:buck_kinder                                   | EntityBuckKinder             |     81 |
| Animania                      | animania:buck_lop                                      | EntityRabbitBuckLop          |    128 |
| Animania                      | animania:buck_new_zealand                              | EntityRabbitBuckNewZealand   |    122 |
| Animania                      | animania:buck_nigerian_dwarf                           | EntityBuckNigerianDwarf      |     84 |
| Animania                      | animania:buck_pygmy                                    | EntityBuckPygmy              |     87 |
| Animania                      | animania:buck_rex                                      | EntityRabbitBuckRex          |    125 |
| Animania                      | animania:bull_angus                                    | EntityBullAngus              |     43 |
| Animania                      | animania:bull_friesian                                 | EntityBullFriesian           |     46 |
| Animania                      | animania:bull_hereford                                 | EntityBullHereford           |     49 |
| Animania                      | animania:bull_highland                                 | EntityBullHighland           |     58 |
| Animania                      | animania:bull_holstein                                 | EntityBullHolstein           |     52 |
| Animania                      | animania:bull_jersey                                   | EntityBullJersey             |     61 |
| Animania                      | animania:bull_longhorn                                 | EntityBullLonghorn           |     55 |
| Animania                      | animania:bull_mooshroom                                | EntityBullMooshroom          |     64 |
| Animania                      | animania:calf_angus                                    | EntityCalfAngus              |     41 |
| Animania                      | animania:calf_friesian                                 | EntityCalfFriesian           |     44 |
| Animania                      | animania:calf_hereford                                 | EntityCalfHereford           |     47 |
| Animania                      | animania:calf_highland                                 | EntityCalfHighland           |     56 |
| Animania                      | animania:calf_holstein                                 | EntityCalfHolstein           |     50 |
| Animania                      | animania:calf_jersey                                   | EntityCalfJersey             |     59 |
| Animania                      | animania:calf_longhorn                                 | EntityCalfLonghorn           |     53 |
| Animania                      | animania:calf_mooshroom                                | EntityCalfMooshroom          |     62 |
| Animania                      | animania:cart                                          | EntityCart                   |    153 |
| Animania                      | animania:chick_leghorn                                 | EntityChickLeghorn           |     26 |
| Animania                      | animania:chick_orpington                               | EntityChickOrpington         |     29 |
| Animania                      | animania:chick_plymouth_rock                           | EntityChickPlymouthRock      |     32 |
| Animania                      | animania:chick_rhode_island_red                        | EntityChickRhodeIslandRed    |     35 |
| Animania                      | animania:chick_wyandotte                               | EntityChickWyandotte         |     38 |
| Animania                      | animania:cow_angus                                     | EntityCowAngus               |     42 |
| Animania                      | animania:cow_friesian                                  | EntityCowFriesian            |     45 |
| Animania                      | animania:cow_hereford                                  | EntityCowHereford            |     48 |
| Animania                      | animania:cow_highland                                  | EntityCowHighland            |     57 |
| Animania                      | animania:cow_holstein                                  | EntityCowHolstein            |     51 |
| Animania                      | animania:cow_jersey                                    | EntityCowJersey              |     60 |
| Animania                      | animania:cow_longhorn                                  | EntityCowLonghorn            |     54 |
| Animania                      | animania:cow_mooshroom                                 | EntityCowMooshroom           |     63 |
| Animania                      | animania:dartfrog                                      | EntityDartFrogs              |     67 |
| Animania                      | animania:doe_alpine                                    | EntityDoeAlpine              |     70 |
| Animania                      | animania:doe_angora                                    | EntityDoeAngora              |     73 |
| Animania                      | animania:doe_chinchilla                                | EntityRabbitDoeChinchilla    |    111 |
| Animania                      | animania:doe_cottontail                                | EntityRabbitDoeCottontail    |    108 |
| Animania                      | animania:doe_dutch                                     | EntityRabbitDoeDutch         |    114 |
| Animania                      | animania:doe_fainting                                  | EntityDoeFainting            |     76 |
| Animania                      | animania:doe_havana                                    | EntityRabbitDoeHavana        |    117 |
| Animania                      | animania:doe_jack                                      | EntityRabbitDoeJack          |    120 |
| Animania                      | animania:doe_kiko                                      | EntityDoeKiko                |     79 |
| Animania                      | animania:doe_kinder                                    | EntityDoeKinder              |     82 |
| Animania                      | animania:doe_lop                                       | EntityRabbitDoeLop           |    129 |
| Animania                      | animania:doe_new_zealand                               | EntityRabbitDoeNewZealand    |    123 |
| Animania                      | animania:doe_nigerian_dwarf                            | EntityDoeNigerianDwarf       |     85 |
| Animania                      | animania:doe_pygmy                                     | EntityDoePygmy               |     88 |
| Animania                      | animania:doe_rex                                       | EntityRabbitDoeRex           |    126 |
| Animania                      | animania:ewe_dorper                                    | EntityEweDorper              |     96 |
| Animania                      | animania:ewe_dorset                                    | EntityEweDorset              |     99 |
| Animania                      | animania:ewe_friesian                                  | EntityEweFriesian            |     90 |
| Animania                      | animania:ewe_jacob                                     | EntityEweJacob               |    105 |
| Animania                      | animania:ewe_merino                                    | EntityEweMerino              |    102 |
| Animania                      | animania:ewe_suffolk                                   | EntityEweSuffolk             |     93 |
| Animania                      | animania:ferret_grey                                   | EntityFerretGrey             |      4 |
| Animania                      | animania:ferret_white                                  | EntityFerretWhite            |      5 |
| Animania                      | animania:foal_draft                                    | EntityFoalDraftHorse         |      2 |
| Animania                      | animania:frog                                          | EntityFrogs                  |     66 |
| Animania                      | animania:hamster                                       | EntityHamster                |      3 |
| Animania                      | animania:hedgehog                                      | EntityHedgehog               |      6 |
| Animania                      | animania:hedgehog_albino                               | EntityHedgehogAlbino         |      7 |
| Animania                      | animania:hen_leghorn                                   | EntityHenLeghorn             |     27 |
| Animania                      | animania:hen_orpington                                 | EntityHenOrpington           |     30 |
| Animania                      | animania:hen_plymouth_rock                             | EntityHenPlymouthRock        |     33 |
| Animania                      | animania:hen_rhode_island_red                          | EntityHenRhodeIslandRed      |     36 |
| Animania                      | animania:hen_wyandotte                                 | EntityHenWyandotte           |     39 |
| Animania                      | animania:hog_duroc                                     | EntityHogDuroc               |     25 |
| Animania                      | animania:hog_hampshire                                 | EntityHogHampshire           |     22 |
| Animania                      | animania:hog_large_black                               | EntityHogLargeBlack          |     16 |
| Animania                      | animania:hog_large_white                               | EntityHogLargeWhite          |     19 |
| Animania                      | animania:hog_old_spot                                  | EntityHogOldSpot             |     13 |
| Animania                      | animania:hog_yorkshire                                 | EntityHogYorkshire           |     10 |
| Animania                      | animania:kid_alpine                                    | EntityKidAlpine              |     68 |
| Animania                      | animania:kid_angora                                    | EntityKidAngora              |     71 |
| Animania                      | animania:kid_fainting                                  | EntityKidFainting            |     74 |
| Animania                      | animania:kid_kiko                                      | EntityKidKiko                |     77 |
| Animania                      | animania:kid_kinder                                    | EntityKidKinder              |     80 |
| Animania                      | animania:kid_nigerian_dwarf                            | EntityKidNigerianDwarf       |     83 |
| Animania                      | animania:kid_pygmy                                     | EntityKidPygmy               |     86 |
| Animania                      | animania:kit_chinchilla                                | EntityRabbitKitChinchilla    |    112 |
| Animania                      | animania:kit_cottontail                                | EntityRabbitKitCottontail    |    109 |
| Animania                      | animania:kit_dutch                                     | EntityRabbitKitDutch         |    115 |
| Animania                      | animania:kit_havana                                    | EntityRabbitKitHavana        |    118 |
| Animania                      | animania:kit_jack                                      | EntityRabbitKitJack          |    121 |
| Animania                      | animania:kit_lop                                       | EntityRabbitKitLop           |    130 |
| Animania                      | animania:kit_new_zealand                               | EntityRabbitKitNewZealand    |    124 |
| Animania                      | animania:kit_rex                                       | EntityRabbitKitRex           |    127 |
| Animania                      | animania:lamb_dorper                                   | EntityLambDorper             |     95 |
| Animania                      | animania:lamb_dorset                                   | EntityLambDorset             |     98 |
| Animania                      | animania:lamb_friesian                                 | EntityLambFriesian           |     89 |
| Animania                      | animania:lamb_jacob                                    | EntityLambJacob              |    104 |
| Animania                      | animania:lamb_merino                                   | EntityLambMerino             |    101 |
| Animania                      | animania:lamb_suffolk                                  | EntityLambSuffolk            |     92 |
| Animania                      | animania:mare_draft                                    | EntityMareDraftHorse         |      0 |
| Animania                      | animania:peachick_blue                                 | EntityPeachickBlue           |    146 |
| Animania                      | animania:peachick_charcoal                             | EntityPeachickCharcoal       |    131 |
| Animania                      | animania:peachick_opal                                 | EntityPeachickOpal           |    134 |
| Animania                      | animania:peachick_peach                                | EntityPeachickPeach          |    137 |
| Animania                      | animania:peachick_purple                               | EntityPeachickPurple         |    140 |
| Animania                      | animania:peachick_taupe                                | EntityPeachickTaupe          |    143 |
| Animania                      | animania:peachick_white                                | EntityPeachickWhite          |    149 |
| Animania                      | animania:peacock_blue                                  | EntityPeacockBlue            |    148 |
| Animania                      | animania:peacock_charcoal                              | EntityPeacockCharcoal        |    133 |
| Animania                      | animania:peacock_opal                                  | EntityPeacockOpal            |    136 |
| Animania                      | animania:peacock_peach                                 | EntityPeacockPeach           |    139 |
| Animania                      | animania:peacock_purple                                | EntityPeacockPurple          |    142 |
| Animania                      | animania:peacock_taupe                                 | EntityPeacockTaupe           |    145 |
| Animania                      | animania:peacock_white                                 | EntityPeacockWhite           |    151 |
| Animania                      | animania:peahen_blue                                   | EntityPeafowlBlue            |    147 |
| Animania                      | animania:peahen_charcoal                               | EntityPeafowlCharcoal        |    132 |
| Animania                      | animania:peahen_opal                                   | EntityPeafowlOpal            |    135 |
| Animania                      | animania:peahen_peach                                  | EntityPeafowlPeach           |    138 |
| Animania                      | animania:peahen_purple                                 | EntityPeafowlPurple          |    141 |
| Animania                      | animania:peahen_taupe                                  | EntityPeafowlTaupe           |    144 |
| Animania                      | animania:peahen_white                                  | EntityPeafowlWhite           |    150 |
| Animania                      | animania:piglet_duroc                                  | EntityPigletDuroc            |     23 |
| Animania                      | animania:piglet_hampshire                              | EntityPigletHampshire        |     20 |
| Animania                      | animania:piglet_large_black                            | EntityPigletLargeBlack       |     14 |
| Animania                      | animania:piglet_large_white                            | EntityPigletLargeWhite       |     17 |
| Animania                      | animania:piglet_old_spot                               | EntityPigletOldSpot          |     11 |
| Animania                      | animania:piglet_yorkshire                              | EntityPigletYorkshire        |      8 |
| Animania                      | animania:ram_dorper                                    | EntityRamDorper              |     97 |
| Animania                      | animania:ram_dorset                                    | EntityRamDorset              |    100 |
| Animania                      | animania:ram_friesian                                  | EntityRamFriesian            |     91 |
| Animania                      | animania:ram_jacob                                     | EntityRamJacob               |    106 |
| Animania                      | animania:ram_merino                                    | EntityRamMerino              |    103 |
| Animania                      | animania:ram_suffolk                                   | EntityRamSuffolk             |     94 |
| Animania                      | animania:rooster_leghorn                               | EntityRoosterLeghorn         |     28 |
| Animania                      | animania:rooster_orpington                             | EntityRoosterOrpington       |     31 |
| Animania                      | animania:rooster_plymouth_rock                         | EntityRoosterPlymouthRock    |     34 |
| Animania                      | animania:rooster_rhode_island_red                      | EntityRoosterRhodeIslandRed  |     37 |
| Animania                      | animania:rooster_wyandotte                             | EntityRoosterWyandotte       |     40 |
| Animania                      | animania:sow_duroc                                     | EntitySowDuroc               |     24 |
| Animania                      | animania:sow_hampshire                                 | EntitySowHampshire           |     21 |
| Animania                      | animania:sow_large_black                               | EntitySowLargeBlack          |     15 |
| Animania                      | animania:sow_large_white                               | EntitySowLargeWhite          |     18 |
| Animania                      | animania:sow_old_spot                                  | EntitySowOldSpot             |     12 |
| Animania                      | animania:sow_yorkshire                                 | EntitySowYorkshire           |      9 |
| Animania                      | animania:stallion_draft                                | EntityStallionDraftHorse     |      1 |
| Animania                      | animania:toad                                          | EntityToad                   |     65 |
| Animania                      | animania:wagon                                         | EntityWagon                  |    152 |
| Applied Energistics 2         | appliedenergistics2:appeng.entity.entitychargedquartz  | EntityChargedQuartz          |     12 |
| Applied Energistics 2         | appliedenergistics2:appeng.entity.entitygrowingcrystal | EntityGrowingCrystal         |     13 |
| Applied Energistics 2         | appliedenergistics2:appeng.entity.entitysingularity    | EntitySingularity            |     11 |
| Applied Energistics 2         | appliedenergistics2:appeng.entity.entitytinytntprimed  | EntityTinyTNTPrimed          |     10 |
| ArmorPlus                     | armorplus:coal_arrow                                   | EntityCoalArrow              |      0 |
| ArmorPlus                     | armorplus:ender_dragon_arrow                           | EntityEnderDragonArrow       |      5 |
| ArmorPlus                     | armorplus:ender_dragon_zombie                          | EntityEnderDragonZombie      |     20 |
| ArmorPlus                     | armorplus:freeze_bomb                                  | EntityFreezeBomb             |      6 |
| ArmorPlus                     | armorplus:ice_golem                                    | EntityIceGolem               |     21 |
| ArmorPlus                     | armorplus:lapis_arrow                                  | EntityLapisArrow             |      1 |
| ArmorPlus                     | armorplus:lava_arrow                                   | EntityLavaArrow              |      4 |
| ArmorPlus                     | armorplus:overlord_of_the_guardians                    | EntityGuardianOverlord       |    100 |
| ArmorPlus                     | armorplus:redstone_arrow                               | EntityRedstoneArrow          |      3 |
| ArmorPlus                     | armorplus:skeletal_king                                | EntitySkeletalKing           |    101 |
| ArmorPlus                     | armorplus:wither_minion                                | EntityWitherMinion           |      7 |
| Astral Sorcery                | astralsorcery:entitycrystal                            | EntityCrystal                |      2 |
| Astral Sorcery                | astralsorcery:entitycrystaltool                        | EntityCrystalTool            |      7 |
| Astral Sorcery                | astralsorcery:entityflare                              | EntityFlare                  |      3 |
| Astral Sorcery                | astralsorcery:entitygrapplinghook                      | EntityGrapplingHook          |      8 |
| Astral Sorcery                | astralsorcery:entityhighlighted                        | EntityItemHighlighted        |      0 |
| Astral Sorcery                | astralsorcery:entityilluminationspark                  | EntityIlluminationSpark      |      5 |
| Astral Sorcery                | astralsorcery:entityliquidspark                        | EntityLiquidSpark            |     10 |
| Astral Sorcery                | astralsorcery:entitynocturnalspark                     | EntityNocturnalSpark         |      6 |
| Astral Sorcery                | astralsorcery:entityspectraltool                       | EntitySpectralTool           |      9 |
| Astral Sorcery                | astralsorcery:entitystarburst                          | EntityStarburst              |      4 |
| Astral Sorcery                | astralsorcery:entitystardust                           | EntityItemStardust           |      1 |
| BiblioCraft                   | bibliocraft:biblioseat                                 | EntitySeat                   |      0 |
| Biomes O' Plenty              | biomesoplenty:mudball                                  | EntityMudball                |      1 |
| Biomes O' Plenty              | biomesoplenty:pixie                                    | EntityPixie                  |      3 |
| Biomes O' Plenty              | biomesoplenty:wasp                                     | EntityWasp                   |      2 |
| Botania                       | botania:babylon_weapon                                 | EntityBabylonWeapon          |     17 |
| Botania                       | botania:corporea_spark                                 | EntityCorporeaSpark          |     11 |
| Botania                       | botania:doppleganger                                   | EntityDoppleganger           |      5 |
| Botania                       | botania:ender_air_bottle                               | EntityEnderAirBottle         |     12 |
| Botania                       | botania:falling_star                                   | EntityFallingStar            |     18 |
| Botania                       | botania:flame_ring                                     | EntityFlameRing              |      3 |
| Botania                       | botania:magic_landmine                                 | EntityMagicLandmine          |      6 |
| Botania                       | botania:magic_missile                                  | EntityMagicMissile           |      9 |
| Botania                       | botania:mana_burst                                     | EntityManaBurst              |      0 |
| Botania                       | botania:mana_storm                                     | EntityManaStorm              |     16 |
| Botania                       | botania:pink_wither                                    | EntityPinkWither             |     14 |
| Botania                       | botania:pixie                                          | EntityPixie                  |      2 |
| Botania                       | botania:player_mover                                   | EntityPlayerMover            |     15 |
| Botania                       | botania:pool_minecart                                  | EntityPoolMinecart           |     13 |
| Botania                       | botania:signal_flare                                   | EntitySignalFlare            |      1 |
| Botania                       | botania:spark                                          | EntitySpark                  |      7 |
| Botania                       | botania:thorn_chakram                                  | EntityThornChakram           |     10 |
| Botania                       | botania:thrown_item                                    | EntityThrownItem             |      8 |
| Botania                       | botania:vine_ball                                      | EntityVineBall               |      4 |
| Comforts                      | comforts:_entity_rest                                  | EntityRest                   |      1 |
| ComputerCraft                 | computercraft:turtle_player                            | TurtlePlayer                 |      0 |
| Computronics                  | computronics:swarm                                     | EntitySwarm                  |      9 |
| Cyclic                        | cyclicmagic:blazebolt                                  | EntityBlazeBolt              |   1008 |
| Cyclic                        | cyclicmagic:dungeonbolt                                | EntityDungeonEye             |   1006 |
| Cyclic                        | cyclicmagic:ender_eye_orb                              | EntityEnderEyeUnbreakable    |   1029 |
| Cyclic                        | cyclicmagic:frostbolt                                  | EntitySnowballBolt           |   1001 |
| Cyclic                        | cyclicmagic:golddropperminecart                        | EntityMinecartDropper        |   1104 |
| Cyclic                        | cyclicmagic:goldfurnaceminecart                        | EntityGoldFurnaceMinecart    |   1101 |
| Cyclic                        | cyclicmagic:goldminecart                               | EntityGoldMinecart           |   1100 |
| Cyclic                        | cyclicmagic:lightningbolt                              | EntityLightningballBolt      |    999 |
| Cyclic                        | cyclicmagic:magic_missile                              | EntityHomingProjectile       |   1020 |
| Cyclic                        | cyclicmagic:magicnetempty                              | EntityMagicNetEmpty          |   1012 |
| Cyclic                        | cyclicmagic:magicnetfull                               | EntityMagicNetFull           |   1011 |
| Cyclic                        | cyclicmagic:stoneminecart                              | EntityStoneMinecart          |   1102 |
| Cyclic                        | cyclicmagic:tntblocksafebolt                           | EntityDynamiteBlockSafe      |   1009 |
| Cyclic                        | cyclicmagic:tntbolt                                    | EntityDynamite               |   1007 |
| Cyclic                        | cyclicmagic:tntminingbolt                              | EntityDynamiteMining         |   1010 |
| Cyclic                        | cyclicmagic:torchbolt                                  | EntityTorchBolt              |   1002 |
| Cyclic                        | cyclicmagic:turretminecart                             | EntityMinecartTurret         |   1106 |
| Cyclic                        | cyclicmagic:woolbolt                                   | EntityShearingBolt           |   1003 |
| Dark Utilities                | darkutils:fake_tnt                                     | EntityFakeTNT                |      0 |
| Doggy Talents                 | doggytalents:attackbeam                                | EntityDoggyBeamWrapper       |      1 |
| Doggy Talents                 | doggytalents:dog                                       | EntityDogWrapper             |      0 |
| Draconic Evolution            | draconicevolution:chaosguardian                        | EntityChaosGuardian          |      6 |
| Draconic Evolution            | draconicevolution:customarrow                          | EntityCustomArrow            |     11 |
| Draconic Evolution            | draconicevolution:dragonheartitem                      | EntityDragonHeart            |      5 |
| Draconic Evolution            | draconicevolution:enderenergymanipulator               | EntityEnderEnergyManipulator |     13 |
| Draconic Evolution            | draconicevolution:entitychaosenergyvortex              | EntityChaosImplosion         |     10 |
| Draconic Evolution            | draconicevolution:guardiancrystal                      | EntityGuardianCrystal        |      8 |
| Draconic Evolution            | draconicevolution:guardianprojectile                   | EntityGuardianProjectile     |      7 |
| Draconic Evolution            | draconicevolution:lootcore                             | EntityLootCore               |     12 |
| Draconic Evolution            | draconicevolution:persistentitem                       | EntityPersistentItem         |      1 |
| EvilCraft                     | evilcraft:broom_entity                                 | EntityBroom                  |      3 |
| EvilCraft                     | evilcraft:controlled_zombie                            | ControlledZombie             |     14 |
| EvilCraft                     | evilcraft:entity_attack_vengeance_beam                 | EntityAttackVengeanceBeam    |     17 |
| EvilCraft                     | evilcraft:entity_biome_extract                         | EntityBiomeExtract           |      8 |
| EvilCraft                     | evilcraft:entity_blood_pearl                           | EntityBloodPearl             |      2 |
| EvilCraft                     | evilcraft:entity_item_dark_stick                       | EntityItemDarkStick          |      7 |
| EvilCraft                     | evilcraft:entity_item_empowerable                      | EntityItemEmpowerable        |      5 |
| EvilCraft                     | evilcraft:entity_item_undespawnable                    | EntityItemUndespawnable      |      6 |
| EvilCraft                     | evilcraft:entity_lightning_bomb                        | EntityLightningBombPrimed    |      9 |
| EvilCraft                     | evilcraft:entity_lightning_grenade                     | EntityLightningGrenade       |      0 |
| EvilCraft                     | evilcraft:entity_necromancers_head                     | EntityNecromancersHead       |     16 |
| EvilCraft                     | evilcraft:entity_neutron_beam                          | EntityAntiVengeanceBeam      |     15 |
| EvilCraft                     | evilcraft:entity_redstone_grenade                      | EntityRedstoneGrenade        |      1 |
| EvilCraft                     | evilcraft:entity_weather_container                     | EntityWeatherContainer       |      4 |
| EvilCraft                     | evilcraft:netherfish                                   | Netherfish                   |     11 |
| EvilCraft                     | evilcraft:poisonous_libelle                            | PoisonousLibelle             |     12 |
| EvilCraft                     | evilcraft:vengeance_spirit                             | VengeanceSpirit              |     13 |
| EvilCraft                     | evilcraft:werewolf                                     | Werewolf                     |     10 |
| Extra Utilities 2             | extrautils2:boomerang                                  | EntityBoomerang              |      0 |
| Extra Utilities 2             | extrautils2:chunkdata                                  | EntityChunkData              |      1 |
| Flux Networks                 | fluxnetworks:flux                                      | EntityFireItem               |      0 |
| Forestry                      | forestry:butterflyge                                   | EntityButterfly              |      0 |
| Forestry                      | forestry:cart.apiary                                   | EntityMinecartApiary         |      2 |
| Forestry                      | forestry:cart.beehouse                                 | EntityMinecartBeehouse       |      1 |
| GlareTorch                    | glaretorch:entitytorch                                 | EntityTorch                  |      2 |
| Immersive Engineering         | immersiveengineering:chemthrowershot                   | EntityChemthrowerShot        |      4 |
| Immersive Engineering         | immersiveengineering:explosive                         | EntityIEExplosive            |      7 |
| Immersive Engineering         | immersiveengineering:fluorescenttube                   | EntityFluorescentTube        |      8 |
| Immersive Engineering         | immersiveengineering:railgunshot                       | EntityRailgunShot            |      5 |
| Immersive Engineering         | immersiveengineering:revolvershot                      | EntityRevolvershot           |      0 |
| Immersive Engineering         | immersiveengineering:revolvershotflare                 | EntityRevolvershotFlare      |      6 |
| Immersive Engineering         | immersiveengineering:revolvershothoming                | EntityRevolvershotHoming     |      2 |
| Immersive Engineering         | immersiveengineering:revolvershotwolfpack              | EntityWolfpackShot           |      3 |
| Immersive Engineering         | immersiveengineering:skylinehook                       | EntitySkylineHook            |      1 |
| Immersive Petroleum           | immersivepetroleum:speedboat                           | EntitySpeedboat              |      0 |
| Industrial Foregoing          | industrialforegoing:pink_slime                         | EntityPinkSlime              | 135135 |
| Inventory Pets                | inventorypets:entityapple                              | EntityApple                  |    406 |
| Inventory Pets                | inventorypets:entitybanana                             | EntityBanana                 |    400 |
| Inventory Pets                | inventorypets:entitybillgates                          | EntityBillGates              |    403 |
| Inventory Pets                | inventorypets:entitygoldenapple                        | EntityGoldenApple            |    407 |
| Inventory Pets                | inventorypets:entitylivinganvil                        | EntityAnvilPet               |    408 |
| Inventory Pets                | inventorypets:entitylivingbed                          | EntityBedPet                 |    409 |
| Inventory Pets                | inventorypets:entityminiquantumblaze                   | EntityMiniQuantumBlaze       |    401 |
| Inventory Pets                | inventorypets:entityminiquantumenderman                | EntityMiniQuantumEnderman    |    402 |
| Inventory Pets                | inventorypets:entitysatyanadella                       | EntitySatyaNadella           |    404 |
| Inventory Pets                | inventorypets:entitysteveballmer                       | EntitySteveBallmer           |    405 |
| Mekanism                      | mekanism:babyskeleton                                  | EntityBabySkeleton           |      3 |
| Mekanism                      | mekanism:balloon                                       | EntityBalloon                |      2 |
| Mekanism                      | mekanism:flame                                         | EntityFlame                  |      4 |
| Mekanism                      | mekanism:obsidiantnt                                   | EntityObsidianTNT            |      0 |
| Mekanism                      | mekanism:robit                                         | EntityRobit                  |      1 |
| MineColonies                  | minecolonies:archerbarbarian                           | EntityArcherBarbarian        |      3 |
| MineColonies                  | minecolonies:barbarian                                 | EntityBarbarian              |      2 |
| MineColonies                  | minecolonies:chiefbarbarian                            | EntityChiefBarbarian         |      4 |
| MineColonies                  | minecolonies:citizen                                   | EntityCitizen                |      0 |
| MineColonies                  | minecolonies:fishhook                                  | EntityFishHook               |      1 |
| Minecraft                     | clumps:xp_orb_big                                      | EntityXPOrbBig               |    615 |
| Minecraft                     | minecraft:area_effect_cloud                            | EntityAreaEffectCloud        |      3 |
| Minecraft                     | minecraft:armor_stand                                  | EntityArmorStand             |     30 |
| Minecraft                     | minecraft:arrow                                        | EntityTippedArrow            |     10 |
| Minecraft                     | minecraft:bat                                          | EntityBat                    |     65 |
| Minecraft                     | minecraft:blaze                                        | EntityBlaze                  |     61 |
| Minecraft                     | minecraft:boat                                         | EntityBoat                   |     41 |
| Minecraft                     | minecraft:cave_spider                                  | EntityCaveSpider             |     59 |
| Minecraft                     | minecraft:chest_minecart                               | EntityMinecartChest          |     43 |
| Minecraft                     | minecraft:chicken                                      | EntityChicken                |     93 |
| Minecraft                     | minecraft:commandblock_minecart                        | EntityMinecartCommandBlock   |     40 |
| Minecraft                     | minecraft:cow                                          | EntityCow                    |     92 |
| Minecraft                     | minecraft:creeper                                      | EntityCreeper                |     50 |
| Minecraft                     | minecraft:donkey                                       | EntityDonkey                 |     31 |
| Minecraft                     | minecraft:dragon_fireball                              | EntityDragonFireball         |     26 |
| Minecraft                     | minecraft:egg                                          | EntityEgg                    |      7 |
| Minecraft                     | minecraft:elder_guardian                               | EntityElderGuardian          |      4 |
| Minecraft                     | minecraft:ender_crystal                                | EntityEnderCrystal           |    200 |
| Minecraft                     | minecraft:ender_dragon                                 | EntityDragon                 |     63 |
| Minecraft                     | minecraft:ender_pearl                                  | EntityEnderPearl             |     14 |
| Minecraft                     | minecraft:enderman                                     | EntityEnderman               |     58 |
| Minecraft                     | minecraft:endermite                                    | EntityEndermite              |     67 |
| Minecraft                     | minecraft:evocation_fangs                              | EntityEvokerFangs            |     33 |
| Minecraft                     | minecraft:evocation_illager                            | EntityEvoker                 |     34 |
| Minecraft                     | minecraft:eye_of_ender_signal                          | EntityEnderEye               |     15 |
| Minecraft                     | minecraft:falling_block                                | EntityFallingBlock           |     21 |
| Minecraft                     | minecraft:fireball                                     | EntityLargeFireball          |     12 |
| Minecraft                     | minecraft:fireworks_rocket                             | EntityFireworkRocket         |     22 |
| Minecraft                     | minecraft:furnace_minecart                             | EntityMinecartFurnace        |     44 |
| Minecraft                     | minecraft:ghast                                        | EntityGhast                  |     56 |
| Minecraft                     | minecraft:giant                                        | EntityGiantZombie            |     53 |
| Minecraft                     | minecraft:guardian                                     | EntityGuardian               |     68 |
| Minecraft                     | minecraft:hopper_minecart                              | EntityMinecartHopper         |     46 |
| Minecraft                     | minecraft:horse                                        | EntityHorse                  |    100 |
| Minecraft                     | minecraft:husk                                         | EntityHusk                   |     23 |
| Minecraft                     | minecraft:illusion_illager                             | EntityIllusionIllager        |     37 |
| Minecraft                     | minecraft:item                                         | EntityItem                   |      1 |
| Minecraft                     | minecraft:item_frame                                   | EntityItemFrame              |     18 |
| Minecraft                     | minecraft:leash_knot                                   | EntityLeashKnot              |      8 |
| Minecraft                     | minecraft:llama                                        | EntityLlama                  |    103 |
| Minecraft                     | minecraft:llama_spit                                   | EntityLlamaSpit              |    104 |
| Minecraft                     | minecraft:magma_cube                                   | EntityMagmaCube              |     62 |
| Minecraft                     | minecraft:minecart                                     | EntityMinecartEmpty          |     42 |
| Minecraft                     | minecraft:mooshroom                                    | EntityMooshroom              |     96 |
| Minecraft                     | minecraft:mule                                         | EntityMule                   |     32 |
| Minecraft                     | minecraft:ocelot                                       | EntityOcelot                 |     98 |
| Minecraft                     | minecraft:painting                                     | EntityPainting               |      9 |
| Minecraft                     | minecraft:parrot                                       | EntityParrot                 |    105 |
| Minecraft                     | minecraft:pig                                          | EntityPig                    |     90 |
| Minecraft                     | minecraft:polar_bear                                   | EntityPolarBear              |    102 |
| Minecraft                     | minecraft:potion                                       | EntityPotion                 |     16 |
| Minecraft                     | minecraft:rabbit                                       | EntityRabbit                 |    101 |
| Minecraft                     | minecraft:sheep                                        | EntitySheep                  |     91 |
| Minecraft                     | minecraft:shulker                                      | EntityShulker                |     69 |
| Minecraft                     | minecraft:shulker_bullet                               | EntityShulkerBullet          |     25 |
| Minecraft                     | minecraft:silverfish                                   | EntitySilverfish             |     60 |
| Minecraft                     | minecraft:skeleton                                     | EntitySkeleton               |     51 |
| Minecraft                     | minecraft:skeleton_horse                               | EntitySkeletonHorse          |     28 |
| Minecraft                     | minecraft:slime                                        | EntitySlime                  |     55 |
| Minecraft                     | minecraft:small_fireball                               | EntitySmallFireball          |     13 |
| Minecraft                     | minecraft:snowball                                     | EntitySnowball               |     11 |
| Minecraft                     | minecraft:snowman                                      | EntitySnowman                |     97 |
| Minecraft                     | minecraft:spawner_minecart                             | EntityMinecartMobSpawner     |     47 |
| Minecraft                     | minecraft:spectral_arrow                               | EntitySpectralArrow          |     24 |
| Minecraft                     | minecraft:spider                                       | EntitySpider                 |     52 |
| Minecraft                     | minecraft:squid                                        | EntitySquid                  |     94 |
| Minecraft                     | minecraft:stray                                        | EntityStray                  |      6 |
| Minecraft                     | minecraft:tnt                                          | EntityTNTPrimed              |     20 |
| Minecraft                     | minecraft:tnt_minecart                                 | EntityMinecartTNT            |     45 |
| Minecraft                     | minecraft:vex                                          | EntityVex                    |     35 |
| Minecraft                     | minecraft:villager                                     | EntityVillager               |    120 |
| Minecraft                     | minecraft:villager_golem                               | EntityIronGolem              |     99 |
| Minecraft                     | minecraft:vindication_illager                          | EntityVindicator             |     36 |
| Minecraft                     | minecraft:witch                                        | EntityWitch                  |     66 |
| Minecraft                     | minecraft:wither                                       | EntityWither                 |     64 |
| Minecraft                     | minecraft:wither_skeleton                              | EntityWitherSkeleton         |      5 |
| Minecraft                     | minecraft:wither_skull                                 | EntityWitherSkull            |     19 |
| Minecraft                     | minecraft:wolf                                         | EntityWolf                   |     95 |
| Minecraft                     | minecraft:xp_bottle                                    | EntityExpBottle              |     17 |
| Minecraft                     | minecraft:xp_orb                                       | EntityXPOrb                  |      2 |
| Minecraft                     | minecraft:zombie                                       | EntityZombie                 |     54 |
| Minecraft                     | minecraft:zombie_horse                                 | EntityZombieHorse            |     29 |
| Minecraft                     | minecraft:zombie_pigman                                | EntityPigZombie              |     57 |
| Minecraft                     | minecraft:zombie_villager                              | EntityZombieVillager         |     27 |
| MmmMmmMmmMmm                  | testdummy:dummy                                        | EntityDummy                  |      0 |
| MmmMmmMmmMmm                  | testdummy:floating_number                              | EntityFloatingNumber         |      1 |
| MmmMmmMmmMmm                  | testdummy:floating_number_dps                          | EntityDpsFloatingNumber      |      2 |
| Mystical Agriculture          | mysticalagriculture:inferium_arrow                     | EntityInferiumArrow          |      0 |
| Mystical Agriculture          | mysticalagriculture:intermedium_arrow                  | EntityIntermediumArrow       |      2 |
| Mystical Agriculture          | mysticalagriculture:prudentium_arrow                   | EntityPrudentiumArrow        |      1 |
| Mystical Agriculture          | mysticalagriculture:superium_arrow                     | EntitySuperiumArrow          |      3 |
| Mystical Agriculture          | mysticalagriculture:supremium_arrow                    | EntitySupremiumArrow         |      4 |
| Natura                        | natura:imp                                             | EntityImp                    |      2 |
| Natura                        | natura:nitrocreeper                                    | EntityNitroCreeper           |      3 |
| OpenBlocks                    | openblocks:cartographer                                | EntityCartographer           |    705 |
| OpenBlocks                    | openblocks:golden_eye                                  | EntityGoldenEye              |    707 |
| OpenBlocks                    | openblocks:hang_glider                                 | EntityHangGlider             |    701 |
| OpenBlocks                    | openblocks:item_projectile                             | EntityItemProjectile         |    706 |
| OpenBlocks                    | openblocks:luggage                                     | EntityLuggage                |    702 |
| OpenBlocks                    | openblocks:magnet                                      | EntityMagnet                 |    703 |
| OpenBlocks                    | openblocks:mini_me                                     | EntityMiniMe                 |    710 |
| OpenBlocks                    | openblocks:mounted_block                               | EntityMountedBlock           |    704 |
| OpenBlocks                    | openblocks:player_magnet                               | PlayerBound                  |    708 |
| OpenBlocks                    | openblocks:xp_orb_no_fly                               | EntityXPOrbNoFly             |    709 |
| OpenComputers                 | opencomputers:drone                                    | Drone                        |      0 |
| OpenModsLib                   | openmods:block                                         | EntityBlock                  |    804 |
| Platforms                     | platforms:gui-item                                     | EntityGuiItem                |      2 |
| PlusTiC                       | plustic:blindbandit                                    | EntityBlindBandit            |      1 |
| PlusTiC                       | plustic:supremeleader                                  | EntitySupremeLeader          |      0 |
| PneumaticCraft: Repressurized | pneumaticcraft:drone                                   | EntityDrone                  |      1 |
| PneumaticCraft: Repressurized | pneumaticcraft:logistic_drone                          | EntityLogisticsDrone         |      2 |
| PneumaticCraft: Repressurized | pneumaticcraft:vortex                                  | EntityVortex                 |      0 |
| PortalGun                     | portalgun:entity_portal                                | EntityPortalProjectile       |    800 |
| Psi                           | psi:spell_charge                                       | EntitySpellCharge            |      3 |
| Psi                           | psi:spell_circle                                       | EntitySpellCircle            |      1 |
| Psi                           | psi:spell_grenade                                      | EntitySpellGrenade           |      2 |
| Psi                           | psi:spell_mine                                         | EntitySpellMine              |      4 |
| Psi                           | psi:spell_projectile                                   | EntitySpellProjectile        |      0 |
| Quark                         | quark:arrow_ender                                      | EntityArrowEnder             |      5 |
| Quark                         | quark:arrow_explosive                                  | EntityArrowExplosive         |      6 |
| Quark                         | quark:arrow_torch                                      | EntityArrowTorch             |      7 |
| Quark                         | quark:ashen                                            | EntityAshen                  |      1 |
| Quark                         | quark:colored_item_frame                               | EntityColoredItemFrame       |      0 |
| Quark                         | quark:dragon_breath_bottle                             | EntityDragonBreathBottle     |     11 |
| Quark                         | quark:dweller                                          | EntityDweller                |      2 |
| Quark                         | quark:flat_item_frame                                  | EntityFlatItemFrame          |      9 |
| Quark                         | quark:glass_item_frame                                 | EntityGlassItemFrame         |     10 |
| Quark                         | quark:pirate                                           | EntityPirate                 |      3 |
| Quark                         | quark:soul_powder                                      | EntitySoulPowder             |      8 |
| Quark                         | quark:wraith                                           | EntityWraith                 |      4 |
| Redstone Arsenal              | redstonearsenal:flux_arrow                             | EntityFluxArrow              |      0 |
| Reliquary                     | xreliquary:blaze_shot                                  | EntityBlazeShot              |      5 |
| Reliquary                     | xreliquary:buster_shot                                 | EntityBusterShot             |      8 |
| Reliquary                     | xreliquary:concussive_shot                             | EntityConcussiveShot         |      7 |
| Reliquary                     | xreliquary:ender_shot                                  | EntityEnderShot              |      6 |
| Reliquary                     | xreliquary:ender_staff_projectile                      | EntityEnderStaffProjectile   |     23 |
| Reliquary                     | xreliquary:exorcism_shot                               | EntityExorcismShot           |      4 |
| Reliquary                     | xreliquary:hand_grenade                                | EntityHolyHandGrenade        |      0 |
| Reliquary                     | xreliquary:holy_water                                  | EntityGlowingWater           |      1 |
| Reliquary                     | xreliquary:kraken_slime                                | EntityKrakenSlime            |     22 |
| Reliquary                     | xreliquary:lyssa_hook                                  | EntityLyssaHook              |     14 |
| Reliquary                     | xreliquary:neutral_shot                                | EntityNeutralShot            |      3 |
| Reliquary                     | xreliquary:sand_shot                                   | EntitySandShot               |     10 |
| Reliquary                     | xreliquary:seeker_shot                                 | EntitySeekerShot             |      9 |
| Reliquary                     | xreliquary:special_snowball                            | EntitySpecialSnowball        |      2 |
| Reliquary                     | xreliquary:storm_shot                                  | EntityStormShot              |     11 |
| Reliquary                     | xreliquary:thrown_aphrodite                            | EntityAttractionPotion       |     12 |
| Reliquary                     | xreliquary:thrown_fertility                            | EntityFertilePotion          |     21 |
| Reliquary                     | xreliquary:thrown_potion                               | EntityThrownXRPotion         |     13 |
| Reliquary                     | xreliquary:tipped arrow                                | EntityXRTippedArrow          |     24 |
| Rustic                        | rustic:tomato                                          | EntityTomato                 |      0 |
| Steve's Carts 2               | stevescarts:cake                                       | EntityCake                   |      3 |
| Steve's Carts 2               | stevescarts:cart.0                                     | EntityMinecartModular        |      0 |
| Steve's Carts 2               | stevescarts:egg                                        | EntityEasterEgg              |      2 |
| TamModized                    | tammodized:dragonold                                   | EntityDragonOld              |      0 |
| Tech Reborn                   | techreborn:nuke                                        | EntityNukePrimed             |      0 |
| The Betweenlands              | thebetweenlands:angler                                 | EntityAngler                 |      2 |
| The Betweenlands              | thebetweenlands:angry_pebble                           | EntityAngryPebble            |     59 |
| The Betweenlands              | thebetweenlands:bl_arrow                               | EntityBLArrow                |     23 |
| The Betweenlands              | thebetweenlands:bl_elexir                              | EntityElixir                 |     68 |
| The Betweenlands              | thebetweenlands:blind_cave_fish                        | EntityBlindCaveFish          |     33 |
| The Betweenlands              | thebetweenlands:blood_snail                            | EntityBloodSnail             |     18 |
| The Betweenlands              | thebetweenlands:chiromaw                               | EntityChiromaw               |     35 |
| The Betweenlands              | thebetweenlands:dark_druid                             | EntityDarkDruid              |      0 |
| The Betweenlands              | thebetweenlands:dragonfly                              | EntityDragonFly              |     16 |
| The Betweenlands              | thebetweenlands:dreadful_mummy                         | EntityDreadfulMummy          |     69 |
| The Betweenlands              | thebetweenlands:firefly                                | EntityFirefly                |     10 |
| The Betweenlands              | thebetweenlands:fortress_boss                          | EntityFortressBoss           |     60 |
| The Betweenlands              | thebetweenlands:fortress_boss_blockade                 | EntityFortressBossBlockade   |     63 |
| The Betweenlands              | thebetweenlands:fortress_boss_projectile               | EntityFortressBossProjectile |     64 |
| The Betweenlands              | thebetweenlands:fortress_boss_spawner                  | EntityFortressBossSpawner    |     62 |
| The Betweenlands              | thebetweenlands:fortress_boss_teleporter               | EntityFortressBossTeleporter |     66 |
| The Betweenlands              | thebetweenlands:fortress_boss_turret                   | EntityFortressBossTurret     |     65 |
| The Betweenlands              | thebetweenlands:frog                                   | EntityFrog                   |     37 |
| The Betweenlands              | thebetweenlands:gas_cloud                              | EntityGasCloud               |     42 |
| The Betweenlands              | thebetweenlands:gecko                                  | EntityGecko                  |     27 |
| The Betweenlands              | thebetweenlands:leech                                  | EntityLeech                  |     14 |
| The Betweenlands              | thebetweenlands:lurker                                 | EntityLurker                 |     25 |
| The Betweenlands              | thebetweenlands:mire_snail                             | EntityMireSnail              |     20 |
| The Betweenlands              | thebetweenlands:mire_snail_egg                         | EntityMireSnailEgg           |     22 |
| The Betweenlands              | thebetweenlands:mummy_arm                              | EntityMummyArm               |     58 |
| The Betweenlands              | thebetweenlands:peat_mummy                             | EntityPeatMummy              |     52 |
| The Betweenlands              | thebetweenlands:pyrad                                  | EntityPyrad                  |     49 |
| The Betweenlands              | thebetweenlands:pyrad_flame                            | EntityPyradFlame             |     51 |
| The Betweenlands              | thebetweenlands:rope_node                              | EntityRopeNode               |     57 |
| The Betweenlands              | thebetweenlands:shockwave_block                        | EntityShockwaveBlock         |     41 |
| The Betweenlands              | thebetweenlands:shockwave_sword_item                   | EntityShockwaveSwordItem     |     40 |
| The Betweenlands              | thebetweenlands:silt_crab                              | EntitySiltCrab               |     47 |
| The Betweenlands              | thebetweenlands:sludge                                 | EntitySludge                 |      4 |
| The Betweenlands              | thebetweenlands:sludge_ball                            | EntitySludgeBall             |     71 |
| The Betweenlands              | thebetweenlands:snail_poison_jet                       | EntitySnailPoisonJet         |     24 |
| The Betweenlands              | thebetweenlands:sporeling                              | EntitySporeling              |     12 |
| The Betweenlands              | thebetweenlands:swamp_hag                              | EntitySwampHag               |      6 |
| The Betweenlands              | thebetweenlands:sword_energy                           | EntitySwordEnergy            |     39 |
| The Betweenlands              | thebetweenlands:tar_beast                              | EntityTarBeast               |     45 |
| The Betweenlands              | thebetweenlands:tarminion                              | EntityTarminion              |     54 |
| The Betweenlands              | thebetweenlands:termite                                | EntityTermite                |     29 |
| The Betweenlands              | thebetweenlands:thrown_tarminion                       | EntityThrownTarminion        |     56 |
| The Betweenlands              | thebetweenlands:toad                                   | EntityGiantToad              |     31 |
| The Betweenlands              | thebetweenlands:volatile_soul                          | EntityVolatileSoul           |     44 |
| The Betweenlands              | thebetweenlands:weedwood_rowboat                       | EntityWeedwoodRowboat        |     67 |
| The Betweenlands              | thebetweenlands:wight                                  | EntityWight                  |      8 |
| The Twilight Forest           | twilightforest:adherent                                | EntityTFAdherent             |     56 |
| The Twilight Forest           | twilightforest:armored_giant                           | EntityTFArmoredGiant         |     53 |
| The Twilight Forest           | twilightforest:bighorn_sheep                           | EntityTFBighorn              |      1 |
| The Twilight Forest           | twilightforest:blockchain_goblin                       | EntityTFBlockGoblin          |     39 |
| The Twilight Forest           | twilightforest:boggard                                 | EntityTFBoggard              |     78 |
| The Twilight Forest           | twilightforest:bunny                                   | EntityTFBunny                |     17 |
| The Twilight Forest           | twilightforest:chain_block                             | EntityTFChainBlock           |     75 |
| The Twilight Forest           | twilightforest:charm_effect                            | EntityTFCharmEffect          |     67 |
| The Twilight Forest           | twilightforest:cube_of_annihilation                    | EntityTFCubeOfAnnihilation   |     76 |
| The Twilight Forest           | twilightforest:death_tome                              | EntityTFDeathTome            |     22 |
| The Twilight Forest           | twilightforest:deer                                    | EntityTFDeer                 |      2 |
| The Twilight Forest           | twilightforest:falling_ice                             | EntityTFFallingIce           |     70 |
| The Twilight Forest           | twilightforest:fire_beetle                             | EntityTFFireBeetle           |     25 |
| The Twilight Forest           | twilightforest:firefly                                 | EntityTFMobileFirefly        |     32 |
| The Twilight Forest           | twilightforest:giant_miner                             | EntityTFGiantMiner           |     52 |
| The Twilight Forest           | twilightforest:goblin_knight_lower                     | EntityTFGoblinKnightLower    |     41 |
| The Twilight Forest           | twilightforest:goblin_knight_upper                     | EntityTFGoblinKnightUpper    |     40 |
| The Twilight Forest           | twilightforest:harbinger_cube                          | EntityTFHarbingerCube        |     55 |
| The Twilight Forest           | twilightforest:hedge_spider                            | EntityTFHedgeSpider          |      9 |
| The Twilight Forest           | twilightforest:helmet_crab                             | EntityTFHelmetCrab           |     42 |
| The Twilight Forest           | twilightforest:hostile_wolf                            | EntityTFHostileWolf          |      7 |
| The Twilight Forest           | twilightforest:hydra                                   | EntityTFHydra                |     10 |
| The Twilight Forest           | twilightforest:hydra_head                              | EntityTFHydraHead            |     58 |
| The Twilight Forest           | twilightforest:hydra_mortar                            | EntityTFHydraMortar          |     63 |
| The Twilight Forest           | twilightforest:ice_arrow                               | EntityIceArrow               |     73 |
| The Twilight Forest           | twilightforest:ice_crystal                             | EntityTFIceCrystal           |     54 |
| The Twilight Forest           | twilightforest:ice_snowball                            | EntityTFIceSnowball          |     74 |
| The Twilight Forest           | twilightforest:king_spider                             | EntityTFKingSpider           |     31 |
| The Twilight Forest           | twilightforest:knight_phantom                          | EntityTFKnightPhantom        |     43 |
| The Twilight Forest           | twilightforest:kobold                                  | EntityTFKobold               |     20 |
| The Twilight Forest           | twilightforest:lich                                    | EntityTFLich                 |     11 |
| The Twilight Forest           | twilightforest:lich_bolt                               | EntityTFLichBolt             |     60 |
| The Twilight Forest           | twilightforest:lich_bomb                               | EntityTFLichBomb             |     64 |
| The Twilight Forest           | twilightforest:lich_minion                             | EntityTFLichMinion           |     13 |
| The Twilight Forest           | twilightforest:loyal_zombie                            | EntityTFLoyalZombie          |     14 |
| The Twilight Forest           | twilightforest:maze_slime                              | EntityTFMazeSlime            |     28 |
| The Twilight Forest           | twilightforest:mini_ghast                              | EntityTFMiniGhast            |     33 |
| The Twilight Forest           | twilightforest:minoshroom                              | EntityTFMinoshroom           |     24 |
| The Twilight Forest           | twilightforest:minotaur                                | EntityTFMinotaur             |     23 |
| The Twilight Forest           | twilightforest:mist_wolf                               | EntityTFMistWolf             |     30 |
| The Twilight Forest           | twilightforest:moonworm_shot                           | EntityTFMoonwormShot         |     65 |
| The Twilight Forest           | twilightforest:mosquito_swarm                          | EntityTFMosquitoSwarm        |     21 |
| The Twilight Forest           | twilightforest:naga                                    | EntityTFNaga                 |      5 |
| The Twilight Forest           | twilightforest:nature_bolt                             | EntityTFNatureBolt           |     59 |
| The Twilight Forest           | twilightforest:penguin                                 | EntityTFPenguin              |     12 |
| The Twilight Forest           | twilightforest:pinch_beetle                            | EntityTFPinchBeetle          |     27 |
| The Twilight Forest           | twilightforest:quest_ram                               | EntityTFQuestRam             |     19 |
| The Twilight Forest           | twilightforest:raven                                   | EntityTFRaven                |     18 |
| The Twilight Forest           | twilightforest:redcap                                  | EntityTFRedcap               |      3 |
| The Twilight Forest           | twilightforest:redcap_sapper                           | EntityTFRedcapSapper         |     29 |
| The Twilight Forest           | twilightforest:roving_cube                             | EntityTFRovingCube           |     57 |
| The Twilight Forest           | twilightforest:seeker_arrow                            | EntitySeekerArrow            |     72 |
| The Twilight Forest           | twilightforest:skeleton_druid                          | EntityTFSkeletonDruid        |      6 |
| The Twilight Forest           | twilightforest:slider                                  | EntityTFSlideBlock           |     77 |
| The Twilight Forest           | twilightforest:slime_beetle                            | EntityTFSlimeBeetle          |     26 |
| The Twilight Forest           | twilightforest:slime_blob                              | EntityTFSlimeProjectile      |     66 |
| The Twilight Forest           | twilightforest:snow_guardian                           | EntityTFSnowGuardian         |     47 |
| The Twilight Forest           | twilightforest:snow_queen                              | EntityTFSnowQueen            |     50 |
| The Twilight Forest           | twilightforest:squirrel                                | EntityTFSquirrel             |     16 |
| The Twilight Forest           | twilightforest:stable_ice_core                         | EntityTFIceShooter           |     48 |
| The Twilight Forest           | twilightforest:swarm_spider                            | EntityTFSwarmSpider          |      4 |
| The Twilight Forest           | twilightforest:thrown_axe                              | EntityTFThrownAxe            |     68 |
| The Twilight Forest           | twilightforest:thrown_ice                              | EntityTFIceBomb              |     71 |
| The Twilight Forest           | twilightforest:thrown_pick                             | EntityTFThrownPick           |     69 |
| The Twilight Forest           | twilightforest:tiny_bird                               | EntityTFTinyBird             |     15 |
| The Twilight Forest           | twilightforest:tome_bolt                               | EntityTFTomeBolt             |     62 |
| The Twilight Forest           | twilightforest:tower_broodling                         | EntityTFTowerBroodling       |     37 |
| The Twilight Forest           | twilightforest:tower_ghast                             | EntityTFTowerGhast           |     34 |
| The Twilight Forest           | twilightforest:tower_golem                             | EntityTFTowerGolem           |     35 |
| The Twilight Forest           | twilightforest:tower_termite                           | EntityTFTowerTermite         |     36 |
| The Twilight Forest           | twilightforest:troll                                   | EntityTFTroll                |     51 |
| The Twilight Forest           | twilightforest:unstable_ice_core                       | EntityTFIceExploder          |     49 |
| The Twilight Forest           | twilightforest:ur_ghast                                | EntityTFUrGhast              |     38 |
| The Twilight Forest           | twilightforest:wand_bolt                               | EntityTFTwilightWandBolt     |     61 |
| The Twilight Forest           | twilightforest:wild_boar                               | EntityTFBoar                 |      0 |
| The Twilight Forest           | twilightforest:winter_wolf                             | EntityTFWinterWolf           |     46 |
| The Twilight Forest           | twilightforest:wraith                                  | EntityTFWraith               |      8 |
| The Twilight Forest           | twilightforest:yeti                                    | EntityTFYeti                 |     44 |
| The Twilight Forest           | twilightforest:yeti_alpha                              | EntityTFYetiAlpha            |     45 |
| Thermal Dynamics              | thermaldynamics:transport                              | EntityTransport              |      0 |
| Thermal Expansion             | thermalexpansion:florb                                 | EntityFlorb                  |      0 |
| Thermal Expansion             | thermalexpansion:morb                                  | EntityMorb                   |      1 |
| Thermal Foundation            | thermalfoundation:basalz                               | EntityBasalz                 |      2 |
| Thermal Foundation            | thermalfoundation:basalz_bolt                          | EntityBasalzBolt             |      5 |
| Thermal Foundation            | thermalfoundation:blitz                                | EntityBlitz                  |      1 |
| Thermal Foundation            | thermalfoundation:blitz_bolt                           | EntityBlitzBolt              |      4 |
| Thermal Foundation            | thermalfoundation:blizz                                | EntityBlizz                  |      0 |
| Thermal Foundation            | thermalfoundation:blizz_bolt                           | EntityBlizzBolt              |      3 |
| Thut's Tech                   | thuttech:lift                                          | EntityLift                   |      0 |
| Tinkers' Construct            | tconstruct:arrow                                       | EntityArrow                  |     10 |
| Tinkers' Construct            | tconstruct:blueslime                                   | EntityBlueSlime              |      1 |
| Tinkers' Construct            | tconstruct:bolt                                        | EntityBolt                   |     11 |
| Tinkers' Construct            | tconstruct:fancy_frame                                 | EntityFancyItemFrame         |      2 |
| Tinkers' Construct            | tconstruct:indestructible                              | IndestructibleEntityItem     |      0 |
| Tinkers' Construct            | tconstruct:shuriken                                    | EntityShuriken               |     12 |
| Tinkers' Construct            | tconstruct:throwball                                   | EntityThrowball              |      3 |
| Totemic                       | totemic:bald_eagle                                     | EntityBaldEagle              |      3 |
| Totemic                       | totemic:baykok                                         | EntityBaykok                 |      1 |
| Totemic                       | totemic:buffalo                                        | EntityBuffalo                |      0 |
| Totemic                       | totemic:invis_arrow                                    | EntityInvisArrow             |      2 |
| Vampirism                     | vampirism:advanced_hunter                              | EntityAdvancedHunter         |      7 |
| Vampirism                     | vampirism:advanced_vampire                             | EntityAdvancedVampire        |     11 |
| Vampirism                     | vampirism:blinding_bat                                 | EntityBlindingBat            |      0 |
| Vampirism                     | vampirism:converted_creature                           | EntityConvertedCreature      |      2 |
| Vampirism                     | vampirism:converted_sheep                              | EntityConvertedSheep         |      3 |
| Vampirism                     | vampirism:converted_villager                           | EntityConvertedVillager      |     12 |
| Vampirism                     | vampirism:crossbow_arrow                               | EntityCrossbowArrow          |     14 |
| Vampirism                     | vampirism:dummy_creature                               | EntityDummyBittenAnimal      |     10 |
| Vampirism                     | vampirism:ghost                                        | EntityGhost                  |      1 |
| Vampirism                     | vampirism:hunter_trainer                               | EntityHunterTrainer          |      6 |
| Vampirism                     | vampirism:hunter_villager                              | EntityHunterVillager         |     13 |
| Vampirism                     | vampirism:particle_cloud                               | EntityAreaParticleCloud      |     15 |
| Vampirism                     | vampirism:special_dracula_halloween                    | EntityDraculaHalloween       |     17 |
| Vampirism                     | vampirism:throwable_item                               | EntityThrowableItem          |     16 |
| Vampirism                     | vampirism:vampire                                      | EntityBasicVampire           |      5 |
| Vampirism                     | vampirism:vampire_baron                                | EntityVampireBaron           |      8 |
| Vampirism                     | vampirism:vampire_hunter                               | EntityBasicHunter            |      4 |
| Vampirism                     | vampirism:vampire_minion_s                             | EntityVampireMinionSaveable  |      9 |
| Waddles                       | waddles:adelie_penguin                                 | EntityAdeliePenguin          |      1 |
| careerbees                    | careerbees:beeswarm                                    | EntityBeeSwarm               |      1 |
| careerbees                    | careerbees:entitychunkdata                             | EntityChunkData              |      0 |
| iChunUtil                     | ichunutil:entity_block                                 | EntityBlock                  |    500 |
| p455w0rd's Library            | p455w0rdslib:sitting_entity                            | EntitySittableBlock          |      0 |
+-------------------------------+--------------------------------------------------------+------------------------------+--------+
| Mod name                      | Registry name                                          | Entity class name            |     ID |
+-------------------------------+--------------------------------------------------------+------------------------------+--------+
