+----------------+-------------+---------+--------+
| World 'overworld' (dim: 0)                      |
| Loaded chunks: 794                              |
| Loaded TileEntities by chunk:                   |
+----------------+-------------+---------+--------+
| Chunk          | Total Count | Ticking | Region |
+----------------+-------------+---------+--------+
| [   51,    -8] | 480         | 196     | r.1.-1 |
| [   -6,    16] | 422         | 15      | r.-1.0 |
| [   12,    52] | 292         | 66      | r.0.1  |
| [  -11,    18] | 275         | 29      | r.-1.0 |
| [  -11,    19] | 268         | 16      | r.-1.0 |
| [  -10,    18] | 253         | 29      | r.-1.0 |
| [   12,    56] | 241         | 41      | r.0.1  |
| [   12,    57] | 221         | 113     | r.0.1  |
| [  -10,    19] | 220         | 14      | r.-1.0 |
| [   -6,    19] | 218         | 1       | r.-1.0 |
| [   11,    57] | 181         | 44      | r.0.1  |
| [   12,    53] | 171         | 32      | r.0.1  |
| [   -6,    18] | 167         | 0       | r.-1.0 |
| [   -6,    17] | 149         | 37      | r.-1.0 |
| [   52,    -8] | 139         | 129     | r.1.-1 |
| [   -7,    19] | 124         | 43      | r.-1.0 |
| [   -7,    25] | 123         | 22      | r.-1.0 |
| [  -12,    19] | 120         | 9       | r.-1.0 |
| [   13,    56] | 120         | 50      | r.0.1  |
| [   13,    57] | 119         | 35      | r.0.1  |
| [   12,    58] | 114         | 81      | r.0.1  |
| [   -7,    24] | 110         | 12      | r.-1.0 |
| [   -9,    24] | 92          | 6       | r.-1.0 |
| [   13,    52] | 89          | 14      | r.0.1  |
| [   13,    58] | 87          | 68      | r.0.1  |
| [   -7,    18] | 81          | 0       | r.-1.0 |
| [   -6,    24] | 73          | 3       | r.-1.0 |
| [  -10,    26] | 67          | 2       | r.-1.0 |
| [  -10,    27] | 67          | 2       | r.-1.0 |
| [   11,    56] | 64          | 17      | r.0.1  |
| [   -7,    30] | 63          | 21      | r.-1.0 |
| [  -11,    17] | 59          | 21      | r.-1.0 |
| [   -9,    31] | 58          | 5       | r.-1.0 |
| [   48,    -8] | 56          | 23      | r.1.-1 |
| [  -24,    31] | 55          | 41      | r.-1.0 |
| [   -8,    26] | 54          | 2       | r.-1.0 |
| [   -7,    26] | 44          | 4       | r.-1.0 |
| [   -8,    24] | 42          | 10      | r.-1.0 |
| [   -5,    60] | 41          | 9       | r.-1.1 |
| [  -11,    20] | 40          | 2       | r.-1.0 |
| [  -12,    20] | 39          | 4       | r.-1.0 |
| [   12,    54] | 37          | 5       | r.0.1  |
| [   12,    55] | 35          | 3       | r.0.1  |
| [   13,    53] | 35          | 8       | r.0.1  |
| [  -11,    27] | 34          | 0       | r.-1.0 |
| [   -9,    26] | 34          | 2       | r.-1.0 |
| [   11,    58] | 32          | 13      | r.0.1  |
| [   11,    53] | 29          | 14      | r.0.1  |
| [   -8,    25] | 28          | 3       | r.-1.0 |
| [   19,    29] | 27          | 1       | r.0.0  |
| [  -12,    17] | 26          | 2       | r.-1.0 |
| [   19,    27] | 25          | 7       | r.0.0  |
| [   -7,    31] | 24          | 3       | r.-1.0 |
| [   11,    52] | 23          | 13      | r.0.1  |
| [   14,    53] | 23          | 10      | r.0.1  |
| [  -10,    17] | 23          | 19      | r.-1.0 |
| [   14,    52] | 22          | 13      | r.0.1  |
| [   -8,    31] | 19          | 3       | r.-1.0 |
| [    9,    55] | 19          | 0       | r.0.1  |
| [  -11,    26] | 17          | 0       | r.-1.0 |
| [   13,    27] | 17          | 1       | r.0.0  |
| [   -4,    60] | 16          | 10      | r.-1.1 |
| [    8,    53] | 15          | 3       | r.0.1  |
| [    9,    53] | 14          | 1       | r.0.1  |
| [   12,    27] | 14          | 1       | r.0.0  |
| [   -6,    30] | 14          | 6       | r.-1.0 |
| [   -4,    59] | 13          | 13      | r.-1.1 |
| [   -8,    19] | 11          | 9       | r.-1.0 |
| [   19,    28] | 11          | 3       | r.0.0  |
| [    9,    21] | 11          | 6       | r.0.0  |
| [   18,    27] | 9           | 3       | r.0.0  |
| [   49,    -8] | 9           | 7       | r.1.-1 |
| [   18,    29] | 8           | 6       | r.0.0  |
| [  -67,    44] | 8           | 7       | r.-3.1 |
| [  -13,    17] | 8           | 1       | r.-1.0 |
| [   -7,    20] | 7           | 5       | r.-1.0 |
| [  -25,    30] | 6           | 2       | r.-1.0 |
| [   18,    28] | 6           | 0       | r.0.0  |
| [  -10,    28] | 6           | 0       | r.-1.0 |
| [   15,    25] | 5           | 1       | r.0.0  |
| [  -11,    29] | 4           | 3       | r.-1.0 |
| [  -10,    30] | 4           | 3       | r.-1.0 |
| [   15,    52] | 4           | 4       | r.0.1  |
| [   -8,    23] | 4           | 1       | r.-1.0 |
| [  -24,    30] | 4           | 2       | r.-1.0 |
| [   -7,    29] | 4           | 2       | r.-1.0 |
| [   10,    28] | 3           | 3       | r.0.0  |
| [   12,    49] | 3           | 3       | r.0.1  |
| [   15,    22] | 3           | 2       | r.0.0  |
| [   10,    27] | 3           | 3       | r.0.0  |
| [    6,    52] | 3           | 3       | r.0.1  |
| [  -24,    32] | 3           | 3       | r.-1.1 |
| [   16,    27] | 3           | 3       | r.0.0  |
| [  -11,    30] | 3           | 3       | r.-1.0 |
| [    8,    59] | 3           | 3       | r.0.1  |
| [   15,    53] | 3           | 3       | r.0.1  |
| [   13,    25] | 3           | 3       | r.0.0  |
| [    7,    59] | 3           | 3       | r.0.1  |
| [    7,    19] | 3           | 3       | r.0.0  |
| [    9,    19] | 3           | 2       | r.0.0  |
| [    1,    25] | 3           | 3       | r.0.0  |
| [    1,    26] | 3           | 3       | r.0.0  |
| [    1,    17] | 3           | 2       | r.0.0  |
| [    4,    53] | 3           | 3       | r.0.1  |
| [   -4,    24] | 3           | 3       | r.-1.0 |
| [   15,    54] | 3           | 3       | r.0.1  |
| [    6,    28] | 2           | 2       | r.0.0  |
| [    9,    24] | 2           | 2       | r.0.0  |
| [   -9,    30] | 2           | 2       | r.-1.0 |
| [   12,    51] | 2           | 0       | r.0.1  |
| [    6,    26] | 2           | 2       | r.0.0  |
| [   18,    55] | 2           | 2       | r.0.1  |
| [  -13,    20] | 2           | 2       | r.-1.0 |
| [   18,    58] | 2           | 1       | r.0.1  |
| [   21,    32] | 2           | 2       | r.0.1  |
| [    7,    54] | 2           | 2       | r.0.1  |
| [   16,    28] | 2           | 2       | r.0.0  |
| [    6,    58] | 2           | 2       | r.0.1  |
| [   -5,    17] | 2           | 2       | r.-1.0 |
| [    0,    22] | 2           | 2       | r.0.0  |
| [    9,    54] | 2           | 2       | r.0.1  |
| [   -7,    16] | 2           | 2       | r.-1.0 |
| [    8,    51] | 2           | 2       | r.0.1  |
| [   -3,    21] | 2           | 2       | r.-1.0 |
| [   16,    53] | 2           | 2       | r.0.1  |
| [   14,    47] | 2           | 2       | r.0.1  |
| [    9,    23] | 2           | 2       | r.0.0  |
| [    7,    50] | 2           | 2       | r.0.1  |
| [    6,    51] | 2           | 2       | r.0.1  |
| [    7,    23] | 2           | 2       | r.0.0  |
| [    4,    51] | 2           | 2       | r.0.1  |
| [   10,    48] | 2           | 2       | r.0.1  |
| [    8,    21] | 2           | 2       | r.0.0  |
| [    9,    20] | 2           | 1       | r.0.0  |
| [   10,    19] | 2           | 2       | r.0.0  |
| [    0,    23] | 2           | 2       | r.0.0  |
| [    6,    60] | 2           | 1       | r.0.1  |
| [   -8,    18] | 2           | 0       | r.-1.0 |
| [  -12,    26] | 2           | 2       | r.-1.0 |
| [   10,    60] | 2           | 2       | r.0.1  |
| [   13,    55] | 2           | 2       | r.0.1  |
| [   15,    51] | 2           | 2       | r.0.1  |
| [    7,    44] | 2           | 2       | r.0.1  |
| [   -6,    29] | 2           | 0       | r.-1.0 |
| [    5,    52] | 2           | 2       | r.0.1  |
| [   -5,    31] | 2           | 2       | r.-1.0 |
| [   11,    48] | 2           | 2       | r.0.1  |
| [    8,    47] | 2           | 2       | r.0.1  |
| [    6,    31] | 2           | 2       | r.0.0  |
| [   -9,    25] | 2           | 0       | r.-1.0 |
| [   -2,    26] | 2           | 2       | r.-1.0 |
| [  -13,    23] | 2           | 2       | r.-1.0 |
| [   16,    59] | 2           | 2       | r.0.1  |
| [   12,    23] | 1           | 1       | r.0.0  |
| [   17,    58] | 1           | 1       | r.0.1  |
| [   15,    20] | 1           | 1       | r.0.0  |
| [   16,    58] | 1           | 1       | r.0.1  |
| [    7,    35] | 1           | 1       | r.0.1  |
| [   15,    59] | 1           | 1       | r.0.1  |
| [   15,    19] | 1           | 1       | r.0.0  |
| [   14,    21] | 1           | 1       | r.0.0  |
| [   -8,    30] | 1           | 1       | r.-1.0 |
| [    7,    25] | 1           | 1       | r.0.0  |
| [   14,    59] | 1           | 1       | r.0.1  |
| [   16,    55] | 1           | 1       | r.0.1  |
| [    7,    34] | 1           | 1       | r.0.1  |
| [   19,    58] | 1           | 1       | r.0.1  |
| [   17,    56] | 1           | 1       | r.0.1  |
| [    1,    20] | 1           | 1       | r.0.0  |
| [    7,    33] | 1           | 1       | r.0.1  |
| [    8,    52] | 1           | 1       | r.0.1  |
| [  -12,    21] | 1           | 1       | r.-1.0 |
| [   -9,    29] | 1           | 1       | r.-1.0 |
| [    1,    21] | 1           | 1       | r.0.0  |
| [    6,    24] | 1           | 1       | r.0.0  |
| [   -2,    30] | 1           | 1       | r.-1.0 |
| [   21,    33] | 1           | 1       | r.0.1  |
| [    1,    22] | 1           | 1       | r.0.0  |
| [   -3,    29] | 1           | 1       | r.-1.0 |
| [    7,    52] | 1           | 1       | r.0.1  |
| [    6,    53] | 1           | 1       | r.0.1  |
| [    8,    33] | 1           | 1       | r.0.1  |
| [  -13,    19] | 1           | 1       | r.-1.0 |
| [   -3,    31] | 1           | 1       | r.-1.0 |
| [    8,    24] | 1           | 1       | r.0.0  |
| [   -6,    28] | 1           | 1       | r.-1.0 |
| [   13,    21] | 1           | 1       | r.0.0  |
| [    8,    26] | 1           | 1       | r.0.0  |
| [   14,    22] | 1           | 1       | r.0.0  |
| [   10,    53] | 1           | 1       | r.0.1  |
| [   -5,    32] | 1           | 1       | r.-1.1 |
| [   13,    19] | 1           | 1       | r.0.0  |
| [   13,    59] | 1           | 1       | r.0.1  |
| [   -5,    24] | 1           | 1       | r.-1.0 |
| [   15,    48] | 1           | 1       | r.0.1  |
| [    8,    34] | 1           | 1       | r.0.1  |
| [   21,    35] | 1           | 1       | r.0.1  |
| [    8,    25] | 1           | 1       | r.0.0  |
| [   19,    34] | 1           | 1       | r.0.1  |
| [   17,    28] | 1           | 1       | r.0.0  |
| [   13,    46] | 1           | 1       | r.0.1  |
| [    9,    57] | 1           | 1       | r.0.1  |
| [   17,    33] | 1           | 1       | r.0.1  |
| [   10,    54] | 1           | 1       | r.0.1  |
| [   20,    32] | 1           | 1       | r.0.1  |
| [    8,    23] | 1           | 1       | r.0.0  |
| [   20,    26] | 1           | 1       | r.0.0  |
| [   -9,    20] | 1           | 1       | r.-1.0 |
| [  -25,    31] | 1           | 1       | r.-1.0 |
| [    1,    30] | 1           | 1       | r.0.0  |
| [    6,    57] | 1           | 1       | r.0.1  |
| [   -1,    22] | 1           | 1       | r.-1.0 |
| [    6,    56] | 1           | 1       | r.0.1  |
| [   13,    47] | 1           | 1       | r.0.1  |
| [   20,    28] | 1           | 1       | r.0.0  |
| [   16,    34] | 1           | 1       | r.0.1  |
| [   -9,    21] | 1           | 1       | r.-1.0 |
| [  -12,    31] | 1           | 1       | r.-1.0 |
| [   10,    55] | 1           | 1       | r.0.1  |
| [   20,    33] | 1           | 1       | r.0.1  |
| [    7,    58] | 1           | 1       | r.0.1  |
| [   17,    24] | 1           | 1       | r.0.0  |
| [  -12,    30] | 1           | 1       | r.-1.0 |
| [   18,    33] | 1           | 1       | r.0.1  |
| [   15,    44] | 1           | 1       | r.0.1  |
| [   15,    45] | 1           | 1       | r.0.1  |
| [    9,    51] | 1           | 1       | r.0.1  |
| [   -3,    19] | 1           | 1       | r.-1.0 |
| [   14,    45] | 1           | 1       | r.0.1  |
| [   17,    27] | 1           | 1       | r.0.0  |
| [   -9,    22] | 1           | 1       | r.-1.0 |
| [   12,    33] | 1           | 1       | r.0.1  |
| [   -7,    17] | 1           | 0       | r.-1.0 |
| [   -1,    21] | 1           | 1       | r.-1.0 |
| [   -3,    61] | 1           | 1       | r.-1.1 |
| [   -7,    23] | 1           | 0       | r.-1.0 |
| [    0,    21] | 1           | 1       | r.0.0  |
| [   12,    25] | 1           | 1       | r.0.0  |
| [    8,    54] | 1           | 0       | r.0.1  |
| [  -10,    31] | 1           | 1       | r.-1.0 |
| [    0,    19] | 1           | 1       | r.0.0  |
| [   18,    24] | 1           | 1       | r.0.0  |
| [   18,    32] | 1           | 1       | r.0.1  |
| [  -66,    44] | 1           | 1       | r.-3.1 |
| [   17,    52] | 1           | 1       | r.0.1  |
| [   13,    30] | 1           | 1       | r.0.0  |
| [    0,    20] | 1           | 1       | r.0.0  |
| [   11,    24] | 1           | 1       | r.0.0  |
| [   10,    50] | 1           | 1       | r.0.1  |
| [   -8,    22] | 1           | 0       | r.-1.0 |
| [   12,    24] | 1           | 1       | r.0.0  |
| [   16,    52] | 1           | 1       | r.0.1  |
| [   11,    26] | 1           | 1       | r.0.0  |
| [    0,    18] | 1           | 1       | r.0.0  |
| [  -11,    25] | 1           | 1       | r.-1.0 |
| [    6,    22] | 1           | 1       | r.0.0  |
| [    8,    60] | 1           | 1       | r.0.1  |
| [  -13,    24] | 1           | 1       | r.-1.0 |
| [  -12,    27] | 1           | 1       | r.-1.0 |
| [   17,    46] | 1           | 1       | r.0.1  |
| [  -11,    24] | 1           | 1       | r.-1.0 |
| [  -11,    32] | 1           | 1       | r.-1.1 |
| [   19,    47] | 1           | 1       | r.0.1  |
| [   16,    46] | 1           | 1       | r.0.1  |
| [   -2,    23] | 1           | 1       | r.-1.0 |
| [    8,    19] | 1           | 1       | r.0.0  |
| [   10,    22] | 1           | 1       | r.0.0  |
| [   15,    27] | 1           | 1       | r.0.0  |
| [  -11,    28] | 1           | 1       | r.-1.0 |
| [   17,    44] | 1           | 1       | r.0.1  |
| [   -5,    59] | 1           | 1       | r.-1.1 |
| [   17,    45] | 1           | 1       | r.0.1  |
| [   -5,    20] | 1           | 1       | r.-1.0 |
| [   12,    29] | 1           | 1       | r.0.0  |
| [    7,    22] | 1           | 1       | r.0.0  |
| [   11,    29] | 1           | 1       | r.0.0  |
| [   17,    47] | 1           | 1       | r.0.1  |
| [    5,    57] | 1           | 1       | r.0.1  |
| [   15,    35] | 1           | 1       | r.0.1  |
| [    1,    28] | 1           | 1       | r.0.0  |
| [   -4,    23] | 1           | 1       | r.-1.0 |
| [   14,    25] | 1           | 1       | r.0.0  |
| [    5,    56] | 1           | 1       | r.0.1  |
| [   19,    31] | 1           | 1       | r.0.0  |
| [   14,    35] | 1           | 1       | r.0.1  |
| [   -2,    18] | 1           | 1       | r.-1.0 |
| [   10,    20] | 1           | 0       | r.0.0  |
| [    8,    22] | 1           | 1       | r.0.0  |
| [   12,    46] | 1           | 1       | r.0.1  |
| [   14,    26] | 1           | 1       | r.0.0  |
| [   21,    22] | 1           | 1       | r.0.0  |
| [  -12,    28] | 1           | 1       | r.-1.0 |
| [    8,    48] | 1           | 1       | r.0.1  |
| [    9,    59] | 1           | 1       | r.0.1  |
| [   14,    24] | 1           | 1       | r.0.0  |
| [   -5,    22] | 1           | 0       | r.-1.0 |
| [   15,    26] | 1           | 1       | r.0.0  |
| [   11,    46] | 1           | 1       | r.0.1  |
| [   16,    31] | 1           | 1       | r.0.0  |
| [   11,    45] | 1           | 1       | r.0.1  |
| [    7,    60] | 1           | 1       | r.0.1  |
| [    6,    20] | 1           | 1       | r.0.0  |
| [   -6,    22] | 1           | 1       | r.-1.0 |
| [   12,    44] | 1           | 1       | r.0.1  |
| [  -25,    32] | 1           | 1       | r.-1.1 |
| [   14,    33] | 1           | 1       | r.0.1  |
| [   -3,    17] | 1           | 1       | r.-1.0 |
| [    1,    24] | 1           | 1       | r.0.0  |
| [  -13,    27] | 1           | 1       | r.-1.0 |
| [   10,    45] | 1           | 1       | r.0.1  |
| [    1,    23] | 1           | 1       | r.0.0  |
| [   14,    51] | 1           | 1       | r.0.1  |
| [   10,    44] | 1           | 1       | r.0.1  |
| [    7,    47] | 1           | 1       | r.0.1  |
| [   16,    22] | 1           | 1       | r.0.0  |
| [   -3,    24] | 1           | 1       | r.-1.0 |
| [   -2,    27] | 1           | 1       | r.-1.0 |
| [   10,    47] | 1           | 1       | r.0.1  |
| [   12,    60] | 1           | 1       | r.0.1  |
| [   -3,    25] | 1           | 1       | r.-1.0 |
| [    9,    47] | 1           | 1       | r.0.1  |
| [   14,    49] | 1           | 1       | r.0.1  |
| [   19,    48] | 1           | 1       | r.0.1  |
| [   -1,    28] | 1           | 0       | r.-1.0 |
| [   18,    21] | 1           | 1       | r.0.0  |
| [    0,    26] | 1           | 1       | r.0.0  |
| [  -13,    18] | 1           | 1       | r.-1.0 |
| [   21,    29] | 1           | 1       | r.0.0  |
| [   13,    54] | 1           | 1       | r.0.1  |
| [   11,    20] | 1           | 1       | r.0.0  |
| [   19,    22] | 1           | 1       | r.0.0  |
| [   18,    19] | 1           | 1       | r.0.0  |
| [    7,    46] | 1           | 1       | r.0.1  |
| [    0,    25] | 1           | 1       | r.0.0  |
| [   15,    50] | 1           | 1       | r.0.1  |
| [   11,    19] | 1           | 1       | r.0.0  |
| [    6,    47] | 1           | 1       | r.0.1  |
| [   11,    21] | 1           | 1       | r.0.0  |
| [   14,    50] | 1           | 1       | r.0.1  |
| [   12,    22] | 1           | 1       | r.0.0  |
| [  -12,    18] | 1           | 1       | r.-1.0 |
| [   13,    50] | 1           | 1       | r.0.1  |
| [    9,    31] | 1           | 1       | r.0.0  |
| [   19,    21] | 1           | 1       | r.0.0  |
| [    0,    27] | 1           | 1       | r.0.0  |
| [   -2,    28] | 1           | 1       | r.-1.0 |
| [   14,    58] | 1           | 1       | r.0.1  |
| [    6,    30] | 1           | 1       | r.0.0  |
| [   16,    20] | 1           | 1       | r.0.0  |
| [   -1,    27] | 1           | 1       | r.-1.0 |
| [   17,    21] | 1           | 1       | r.0.0  |
| [   14,    55] | 1           | 1       | r.0.1  |
| [   -3,    27] | 1           | 1       | r.-1.0 |
| [   13,    51] | 1           | 1       | r.0.1  |
| [   16,    19] | 1           | 1       | r.0.0  |
| [   20,    60] | 1           | 1       | r.0.1  |
| [    6,    29] | 1           | 1       | r.0.0  |
| [   17,    59] | 1           | 1       | r.0.1  |
+----------------+-------------+---------+--------+
| In total there were 6801 loaded TileEntities    |
| in 358 chunks, of which 1825 are ticking.       |
| Out of 794 loaded chunks in total,              |
| there were 436 chunks with no TileEntities.     |
+----------------+-------------+---------+--------+
